ST558 HW5 - Lee Worthington
…
ChestPainType, RestingECG, and ST_Slope are characters

Sex, FastingBS, ExerciseAngina, and HeartDisease are binary

Count missing values with respect ot HeartDisease

# Count missing values grouped by HeartDisease and print @@@@@@@@@@@@@@@@@@@@@
heart_data_1 |>
  group_by(HeartDisease) |>
  summarise_all(~sum(is.na(.))) |>
  gather(key = "Variable", value = "MissingValues", -HeartDisease) |>
  arrange(desc(MissingValues), HeartDisease) |>
  print()

# A tibble: 22 × 3
   HeartDisease Variable       MissingValues
          <dbl> <chr>                  <int>
 1            0 Age                        0
 2            0 Sex                        0
 3            0 ChestPainType              0
 4            0 RestingBP                  0
 5            0 Cholesterol                0
 6            0 FastingBS                  0
 7            0 RestingECG                 0
 8            0 MaxHR                      0
 9            0 ExerciseAngina             0
10            0 Oldpeak                    0
# ℹ 12 more rows
…
